E:\GitHub_java framework\RestAPI\SanpEngage\src\main\java\com\Test\Utility\GetDriver.java
E:\GitHub_java framework\RestAPI\SanpEngage\src\main\java\com\Test\Utility\TakeScreenShotAs.java
E:\GitHub_java framework\RestAPI\SanpEngage\src\main\java\com\Test\Pages\SnapEngage_LoginPage.java
E:\GitHub_java framework\RestAPI\SanpEngage\src\main\java\com\Test\Utility\ReadPropertyFile.java
E:\GitHub_java framework\RestAPI\SanpEngage\src\main\java\com\Test\BaseClass\BaseClass.java
